C:\Users\BrendaAndradeRibeiro\Aula-01\src\test\java\api\ApiVerbos.java
C:\Users\BrendaAndradeRibeiro\Aula-01\src\test\java\utils\ScenarioUtils.java
C:\Users\BrendaAndradeRibeiro\Aula-01\src\test\java\api\ApiRequest.java
C:\Users\BrendaAndradeRibeiro\Aula-01\src\test\java\api\ApiUtils.java
C:\Users\BrendaAndradeRibeiro\Aula-01\src\test\java\utils\LogUtils.java
